variant,defaultCHWithoutSort, defaultCHWithAscendingSort, defaultCHWithDescendingSort, defaultCHWithRandomSort, centeredCHWithoutSort, centeredCHWithAscendingSort, centeredCHWithDescendingSort, centeredCHWithRandomSort, randomCHWithoutSort, randomCHWithAscendingSort, randomCHWithDescendingSort, randomCHWithRandomSort
Engine,91,158,191,149.81 (10.16),169,142,178,142.43 (9.30),159.99 (19.48),146.36 (16.02),175.83 (9.88),147.69 (12.78)
MinArea,124,108,124,111.45 (12.69),124,124,149,112.89 (12.72),123.58 (8.25),112.7 (14.56),135.25 (12.44),110.4 (11.17)
MaxArea,139,174,204,163.2 (16.09),191,166,208,177.62 (9.94),179.08 (23.98),168.93 (17.11),199.56 (11.50),173.89 (16.19)
MinSpace,124,108,124,114.24 (9.84),124,124,149,111.2 (12.39),124.72 (8.36),113.73 (13.86),134.75 (12.38),107.36 (11.96)
MaxSpace,139,174,204,164.75 (15.41),191,166,208,175.64 (12.31),174.06 (22.86),168.68 (19.56),198.35 (13.29),172.28 (16.74)
Randomizer,148.33 (27.22),146.03 (15.74),180.73 (10.58),147.84 (13.30),170.58 (12.77),140.82 (14.27),174.04 (12.89),146.94 (14.71),161.78 (17.09),148.65 (16.15),173.72 (13.13),144.36 (15.59)